<!-- Created with Inkscape (http://www.inkscape.org/) --><svg xmlns:ns1="https://launchpad.net/jessyink" xmlns:dc="http://purl.org/dc/elements/1.1/" xmlns:cc="http://creativecommons.org/ns#" xmlns:rdf="http://www.w3.org/1999/02/22-rdf-syntax-ns#" xmlns:svg="http://www.w3.org/2000/svg" xmlns="http://www.w3.org/2000/svg" xmlns:xlink="http://www.w3.org/1999/xlink" xmlns:sodipodi="http://sodipodi.sourceforge.net/DTD/sodipodi-0.dtd" xmlns:inkscape="http://www.inkscape.org/namespaces/inkscape" width="1000" height="1000" viewBox="0 0 1000 1000" version="1.1" id="svg8" inkscape:version="0.92.4 5da689c313, 2019-01-14" sodipodi:docname="test.svg">
  <defs id="defs33">
    <marker inkscape:stockid="Arrow2Lstart" orient="auto" refY="0.0" refX="0.0" id="Arrow2Lstart" style="overflow:visible" inkscape:isstock="true">
      <path id="path859" style="fill-rule:evenodd;stroke-width:0.625;stroke-linejoin:round;stroke:#000000;stroke-opacity:1;fill:#000000;fill-opacity:1" d="M 8.7185878,4.0337352 L -2.2072895,0.016013256 L 8.7185884,-4.0017078 C 6.9730900,-1.6296469 6.9831476,1.6157441 8.7185878,4.0337352 z " transform="scale(1.1) translate(1,0)"/>
    </marker>
  </defs>
  <sodipodi:namedview pagecolor="#ffffff" bordercolor="#666666" borderopacity="1" objecttolerance="10" gridtolerance="10" guidetolerance="10" inkscape:pageopacity="0" inkscape:pageshadow="2" inkscape:window-width="1920" inkscape:window-height="1017" id="base" showgrid="true" inkscape:snap-text-baseline="true" inkscape:zoom="0.6675088" inkscape:cx="202.7349" inkscape:cy="481.16986" inkscape:window-x="0" inkscape:window-y="0" inkscape:window-maximized="1" inkscape:current-layer="webslicer-layer">
    <inkscape:grid type="xygrid" id="grid27" spacingx="10" spacingy="10" empspacing="10" color="#8080ff" opacity="0.25098039" empcolor="#0000ff" empopacity="0.25098039"/>
  </sodipodi:namedview>
  <g inkscape:groupmode="layer" id="webslicer-layer" inkscape:label="Slide3" style="display:inline">
    <rect height="201.49811" width="248.69112" y="353.92661" x="651.3089" id="slicerect1" style="opacity:0.5;fill:#ff0000;stroke-width:1.11927199">
      <desc id="desc51">format: png
dpi: 96
layout-disposition: bg-el-norepeat
layout-position-anchor: tl</desc>
    </rect>
  <svg:g inkscape:label="WireframeSphere" transform="translate(202.735, 481.17)"><g inkscape:label="Lines of Longitude"><path style="fill:none;stroke:#000000;stroke-width:1.0" sodipodi:cx="0" sodipodi:cy="0" sodipodi:rx="5.7151158069891626" sodipodi:ry="100.0" sodipodi:start="0" sodipodi:end="6.283185307179586" sodipodi:open="true" sodipodi:type="arc" sodipodi:arc-type="arc" transform="rotate(2.29681)"/><path style="fill:none;stroke:#000000;stroke-width:1.0" sodipodi:cx="0" sodipodi:cy="0" sodipodi:rx="26.669981927897414" sodipodi:ry="100.0" sodipodi:start="0" sodipodi:end="6.283185307179586" sodipodi:open="true" sodipodi:type="arc" sodipodi:arc-type="arc" transform="rotate(11.172)"/><path style="fill:none;stroke:#000000;stroke-width:1.0" sodipodi:cx="0" sodipodi:cy="0" sodipodi:rx="45.80740100299591" sodipodi:ry="100.0" sodipodi:start="0" sodipodi:end="6.283185307179586" sodipodi:open="true" sodipodi:type="arc" sodipodi:arc-type="arc" transform="rotate(21.1506)"/><path style="fill:none;stroke:#000000;stroke-width:1.0" sodipodi:cx="0" sodipodi:cy="0" sodipodi:rx="61.82318954839705" sodipodi:ry="100.0" sodipodi:start="0" sodipodi:end="6.283185307179586" sodipodi:open="true" sodipodi:type="arc" sodipodi:arc-type="arc" transform="rotate(33.4178)"/><path style="fill:none;stroke:#000000;stroke-width:1.0" sodipodi:cx="0" sodipodi:cy="0" sodipodi:rx="73.62589804207374" sodipodi:ry="100.0" sodipodi:start="0" sodipodi:end="6.283185307179586" sodipodi:open="true" sodipodi:type="arc" sodipodi:arc-type="arc" transform="rotate(49.6243)"/><path style="fill:none;stroke:#000000;stroke-width:1.0" sodipodi:cx="0" sodipodi:cy="0" sodipodi:rx="80.41119140507992" sodipodi:ry="100.0" sodipodi:start="0" sodipodi:end="6.283185307179586" sodipodi:open="true" sodipodi:type="arc" sodipodi:arc-type="arc" transform="rotate(71.2789)"/><path style="fill:none;stroke:#000000;stroke-width:1.0" sodipodi:cx="0" sodipodi:cy="0" sodipodi:rx="81.71666310795416" sodipodi:ry="100.0" sodipodi:start="0" sodipodi:end="6.283185307179586" sodipodi:open="true" sodipodi:type="arc" sodipodi:arc-type="arc" transform="rotate(-83.0492)"/><path style="fill:none;stroke:#000000;stroke-width:1.0" sodipodi:cx="0" sodipodi:cy="0" sodipodi:rx="77.4533474115396" sodipodi:ry="100.0" sodipodi:start="0" sodipodi:end="6.283185307179586" sodipodi:open="true" sodipodi:type="arc" sodipodi:arc-type="arc" transform="rotate(-59.0229)"/><path style="fill:none;stroke:#000000;stroke-width:1.0" sodipodi:cx="0" sodipodi:cy="0" sodipodi:rx="67.91178223508459" sodipodi:ry="100.0" sodipodi:start="0" sodipodi:end="6.283185307179586" sodipodi:open="true" sodipodi:type="arc" sodipodi:arc-type="arc" transform="rotate(-40.3766)"/><path style="fill:none;stroke:#000000;stroke-width:1.0" sodipodi:cx="0" sodipodi:cy="0" sodipodi:rx="53.74220947718249" sodipodi:ry="100.0" sodipodi:start="0" sodipodi:end="6.283185307179586" sodipodi:open="true" sodipodi:type="arc" sodipodi:arc-type="arc" transform="rotate(-26.501)"/><path style="fill:none;stroke:#000000;stroke-width:1.0" sodipodi:cx="0" sodipodi:cy="0" sodipodi:rx="35.910262104958235" sodipodi:ry="100.0" sodipodi:start="0" sodipodi:end="6.283185307179586" sodipodi:open="true" sodipodi:type="arc" sodipodi:arc-type="arc" transform="rotate(-15.6291)"/><path style="fill:none;stroke:#000000;stroke-width:1.0" sodipodi:cx="0" sodipodi:cy="0" sodipodi:rx="15.63115786314256" sodipodi:ry="100.0" sodipodi:start="0" sodipodi:end="6.283185307179586" sodipodi:open="true" sodipodi:type="arc" sodipodi:arc-type="arc" transform="rotate(-6.36175)"/></g><g inkscape:label="Lines of Latitude"><path style="fill:none;stroke:#000000;stroke-width:1.0" sodipodi:cx="0" sodipodi:cy="80.90669233189091" sodipodi:rx="15.643446504023087" sodipodi:ry="8.973712298025792" sodipodi:start="0" sodipodi:end="6.283185307179586" sodipodi:open="true" sodipodi:type="arc" sodipodi:arc-type="arc"/><path style="fill:none;stroke:#000000;stroke-width:1.0" sodipodi:cx="0" sodipodi:cy="77.90598895575418" sodipodi:rx="30.901699437494738" sodipodi:ry="17.725486640549356" sodipodi:start="0" sodipodi:end="6.283185307179586" sodipodi:open="true" sodipodi:type="arc" sodipodi:arc-type="arc"/><path style="fill:none;stroke:#000000;stroke-width:1.0" sodipodi:cx="0" sodipodi:cy="72.98698157637305" sodipodi:rx="45.399049973954675" sodipodi:ry="26.040825297783975" sodipodi:start="0" sodipodi:end="6.283185307179586" sodipodi:open="true" sodipodi:type="arc" sodipodi:arc-type="arc"/><path style="fill:none;stroke:#000000;stroke-width:1.0" sodipodi:cx="0" sodipodi:cy="66.2707924806774" sodipodi:rx="58.778525229247315" sodipodi:ry="33.71497703496173" sodipodi:start="0" sodipodi:end="6.283185307179586" sodipodi:open="true" sodipodi:type="arc" sodipodi:arc-type="arc"/><path style="fill:none;stroke:#000000;stroke-width:1.0" sodipodi:cx="0" sodipodi:cy="57.92279653395693" sodipodi:rx="70.71067811865474" sodipodi:ry="40.55897876726387" sodipodi:start="0" sodipodi:end="6.283185307179586" sodipodi:open="true" sodipodi:type="arc" sodipodi:arc-type="arc"/><path style="fill:none;stroke:#000000;stroke-width:1.0" sodipodi:cx="0" sodipodi:cy="48.14854910183002" sodipodi:rx="80.90169943749474" sodipodi:ry="46.40430845810166" sodipodi:start="0" sodipodi:end="6.283185307179586" sodipodi:open="true" sodipodi:type="arc" sodipodi:arc-type="arc"/><path style="fill:none;stroke:#000000;stroke-width:1.0" sodipodi:cx="0" sodipodi:cy="37.188724594943075" sodipodi:rx="89.10065241883677" sodipodi:ry="51.107034690949604" sodipodi:start="0" sodipodi:end="6.283185307179586" sodipodi:open="true" sodipodi:type="arc" sodipodi:arc-type="arc"/><path style="fill:none;stroke:#000000;stroke-width:1.0" sodipodi:cx="0" sodipodi:cy="25.31319026622781" sodipodi:rx="95.10565162951535" sodipodi:ry="54.551360738501465" sodipodi:start="0" sodipodi:end="6.283185307179586" sodipodi:open="true" sodipodi:type="arc" sodipodi:arc-type="arc"/><path style="fill:none;stroke:#000000;stroke-width:1.0" sodipodi:cx="0" sodipodi:cy="12.814361183495999" sodipodi:rx="98.76883405951378" sodipodi:ry="56.65247586240373" sodipodi:start="0" sodipodi:end="6.283185307179586" sodipodi:open="true" sodipodi:type="arc" sodipodi:arc-type="arc"/><path style="fill:none;stroke:#000000;stroke-width:1.0" sodipodi:cx="0" sodipodi:cy="5.015859645267624e-15" sodipodi:rx="100.0" sodipodi:ry="57.358643635104606" sodipodi:start="0" sodipodi:end="6.283185307179586" sodipodi:open="true" sodipodi:type="arc" sodipodi:arc-type="arc"/><path style="fill:none;stroke:#000000;stroke-width:1.0" sodipodi:cx="0" sodipodi:cy="-12.81436118349599" sodipodi:rx="98.76883405951378" sodipodi:ry="56.65247586240373" sodipodi:start="0" sodipodi:end="6.283185307179586" sodipodi:open="true" sodipodi:type="arc" sodipodi:arc-type="arc"/><path style="fill:none;stroke:#000000;stroke-width:1.0" sodipodi:cx="0" sodipodi:cy="-25.3131902662278" sodipodi:rx="95.10565162951536" sodipodi:ry="54.55136073850148" sodipodi:start="0" sodipodi:end="6.283185307179586" sodipodi:open="true" sodipodi:type="arc" sodipodi:arc-type="arc"/><path style="fill:none;stroke:#000000;stroke-width:1.0" sodipodi:cx="0" sodipodi:cy="-37.18872459494307" sodipodi:rx="89.10065241883679" sodipodi:ry="51.10703469094961" sodipodi:start="0" sodipodi:end="6.283185307179586" sodipodi:open="true" sodipodi:type="arc" sodipodi:arc-type="arc"/><path style="fill:none;stroke:#000000;stroke-width:1.0" sodipodi:cx="0" sodipodi:cy="-48.14854910183001" sodipodi:rx="80.90169943749474" sodipodi:ry="46.40430845810166" sodipodi:start="0" sodipodi:end="6.283185307179586" sodipodi:open="true" sodipodi:type="arc" sodipodi:arc-type="arc"/><path style="fill:none;stroke:#000000;stroke-width:1.0" sodipodi:cx="0" sodipodi:cy="-57.92279653395691" sodipodi:rx="70.71067811865476" sodipodi:ry="40.55897876726388" sodipodi:start="0" sodipodi:end="6.283185307179586" sodipodi:open="true" sodipodi:type="arc" sodipodi:arc-type="arc"/><path style="fill:none;stroke:#000000;stroke-width:1.0" sodipodi:cx="0" sodipodi:cy="-66.27079248067739" sodipodi:rx="58.77852522924732" sodipodi:ry="33.71497703496173" sodipodi:start="0" sodipodi:end="6.283185307179586" sodipodi:open="true" sodipodi:type="arc" sodipodi:arc-type="arc"/><path style="fill:none;stroke:#000000;stroke-width:1.0" sodipodi:cx="0" sodipodi:cy="-72.98698157637304" sodipodi:rx="45.39904997395469" sodipodi:ry="26.040825297783982" sodipodi:start="0" sodipodi:end="6.283185307179586" sodipodi:open="true" sodipodi:type="arc" sodipodi:arc-type="arc"/><path style="fill:none;stroke:#000000;stroke-width:1.0" sodipodi:cx="0" sodipodi:cy="-77.90598895575418" sodipodi:rx="30.901699437494752" sodipodi:ry="17.725486640549367" sodipodi:start="0" sodipodi:end="6.283185307179586" sodipodi:open="true" sodipodi:type="arc" sodipodi:arc-type="arc"/><path style="fill:none;stroke:#000000;stroke-width:1.0" sodipodi:cx="0" sodipodi:cy="-80.9066923318909" sodipodi:rx="15.643446504023098" sodipodi:ry="8.973712298025797" sodipodi:start="0" sodipodi:end="6.283185307179586" sodipodi:open="true" sodipodi:type="arc" sodipodi:arc-type="arc"/></g><path style="fill:none;stroke:#000000;stroke-width:1.0" sodipodi:cx="0" sodipodi:cy="0" sodipodi:rx="100.0" sodipodi:ry="100.0" sodipodi:start="0" sodipodi:end="6.283185307179586" sodipodi:open="true" sodipodi:type="arc" sodipodi:arc-type="arc"/></svg:g></g>
  <g inkscape:groupmode="layer" id="layer2" inkscape:label="Slide2" style="display:inline">
    <circle style="display:inline;fill:#000080;stroke:none" id="c1" cx="150" cy="450" r="50" inkscape:label="#path3736"/>
    <ellipse style="display:inline;fill:none;stroke:#ff0000;stroke-width:16" id="c2" cx="400" cy="450" rx="100" ry="50" inkscape:label="#path3738"/>
    <path style="display:inline;fill:#ffff00;stroke:#008000;stroke-width:16" id="c3" sodipodi:type="arc" sodipodi:cx="700" sodipodi:cy="450" sodipodi:rx="100" sodipodi:ry="50" sodipodi:start="0.59013865" sodipodi:end="5.6484511" d="m 783.08635,477.82381 a 100,50 0 0 1 -111.09848,20.17442 100,50 0 0 1 -71.96301,-46.88343 100,50 0 0 1 67.71127,-48.44091 100,50 0 0 1 112.7868,17.67793 L 700,450 Z" inkscape:label="#path3740"/>
    <path style="display:inline;fill:none;stroke:#000000;stroke-width:10;marker-start:url(#Arrow2Lstart)" d="M 100,600 200,700 300,600 400,700" id="p1" inkscape:connector-curvature="0" inkscape:label="#path3746"/>
    <path style="display:inline;fill:none;stroke:#000000;stroke-width:10" d="m 500,600 c 0,0 0,100 100,100 100,0 0,-100 100,-100 100,0 100,100 100,100" id="p2" inkscape:connector-curvature="0" inkscape:label="#path3748"/>
    <path sodipodi:type="star" style="display:inline;fill:#ffff00;stroke:#008000;stroke-width:10" id="s1" sodipodi:sides="5" sodipodi:cx="189.03001" sodipodi:cy="847.93945" sodipodi:r1="69.364868" sodipodi:r2="34.682434" sodipodi:arg1="0.63598373" sodipodi:arg2="1.2643023" inkscape:flatsided="false" inkscape:rounded="0" inkscape:randomized="0" d="m 244.8332,889.14005 -45.33887,-8.13446 -32.40428,32.73753 -6.27415,-45.63352 -41.14872,-20.70184 41.46124,-20.06861 6.97297,-45.53197 31.89861,33.23044 45.45824,-7.43847 -21.74681,40.60615 z" inkscape:transform-center-x="6.4673011" inkscape:transform-center-y="-0.16430137"/>
    <use style="display:inline" x="0" y="0" xlink:href="#s1" inkscape:transform-center-x="6.4673011" inkscape:transform-center-y="-0.16430137" id="u1" transform="translate(200,2.9962152)" width="100%" height="100%" inkscape:label="#use3808"/>
  </g>
  <g inkscape:label="Slide1" inkscape:groupmode="layer" id="layer1" style="display:inline">
    <text xml:space="preserve" style="font-size:14.66666698px;line-height:1.25;font-family:sans-serif;fill:#000000;stroke:none" x="100" y="100" id="t1" inkscape:label="#text12"><tspan sodipodi:role="line" id="tspan10" x="100" y="100">Hello World</tspan></text>
    <flowRoot xml:space="preserve" id="t4" style="font-size:40px;line-height:1.25;font-family:sans-serif;fill:#000000;stroke:none" transform="matrix(0.26458333,0,0,0.26458333,372.02961,28.904505)" inkscape:label="#flowRoot14"><flowRegion id="flowRegion16"><rect id="rect18" width="264.5675" height="262.16187" x="105.71429" y="219.66254"/></flowRegion><flowPara id="flowPara20" style="font-size:55.43307114px">flow text which wraps</flowPara></flowRoot>    <text xml:space="preserve" style="font-size:14.66666698px;line-height:1.25;font-family:sans-serif;fill:#000000;stroke:none" x="200" y="100" id="t2" inkscape:label="#text3727"><tspan sodipodi:role="line" id="tspan3725" x="200" y="100" style="font-size:14.66666698px">UPPER</tspan></text>
    <text xml:space="preserve" style="font-size:10.58333302px;line-height:1.25;font-family:sans-serif;fill:#000000;stroke:none" x="300" y="100" id="t3" inkscape:label="#text3735"><tspan sodipodi:role="line" id="tspan3733" x="300" y="100" style="font-size:14.66666698px">Multi line</tspan><tspan sodipodi:role="line" x="300" y="118.33334" id="tspan3737" style="font-size:14.66666698px">text</tspan><tspan sodipodi:role="line" x="300" y="136.66667" id="tspan3739" style="font-size:14.66666698px">FOO</tspan></text>
    <g id="t5" transform="translate(445.71038,-129.64807)" inkscape:label="#g3772">
      <text id="text3762" y="229.64807" x="54.289616" style="font-size:10.58333302px;line-height:1.25;font-family:sans-serif;fill:#000000;stroke:none" xml:space="preserve"><tspan y="229.64807" x="54.289616" id="tspan3760" sodipodi:role="line" style="font-size:14.66666698px">Grouped</tspan></text>
      <text id="text3766" y="259.64807" x="54.289619" style="font-size:14.66666698px;line-height:1.25;font-family:sans-serif;fill:#000000;stroke:none" xml:space="preserve"><tspan y="259.64807" x="54.289619" id="tspan3764" sodipodi:role="line" style="font-size:14.66666698px">text</tspan></text>
    </g>
    <rect style="fill:#000080;stroke:none" id="r1" width="100" height="100" x="100" y="200" inkscape:label="#rect3732"/>
    <rect style="fill:none;stroke:#ff0000;stroke-width:16" id="r2" width="200" height="100" x="300" y="200" inkscape:label="#rect3734"/>
    <rect style="fill:#ffff00;stroke:#008000;stroke-width:16" id="r3" width="200" height="100" x="600" y="200" ry="38.950798" rx="44.943226" inkscape:label="#rect3744"/>
  </g>
  <script ns1:version="1.5.5" id="JessyInk">// dummy
</script>
</svg>
